…
#>  StateXY(46.5354, 7.09242e5, 6.25281e6)     StateXY(193.147, 7.08309e5, 6.25625e6)
#>  StateXY(58.245, 7.09042e5, 6.25291e6)      StateXY(191.794, 7.07576e5, 6.25459e6)
#>  StateXY(84.4729, 7.09242e5, 6.25351e6)     StateXY(143.758, 7.0913e5, 6.25544e6)
#>  ⋮                                       ⋱  
#>  StateXY(60.0933, 7.09342e5, 6.25331e6)     StateXY(157.43, 708992.0, 6.25539e6)
#>  StateXY(68.5332, 7.09242e5, 6.25331e6)     StateXY(179.343, 7.07264e5, 6.25473e6)
#>  StateXY(55.2068, 7.09642e5, 6.25361e6)     StateXY(199.453, 707926.0, 6.25602e6)
#>  StateXY(56.538, 7.09342e5, 6.25321e6)      StateXY(186.857, 7.08449e5, 6.25551e6)
#>  StateXY(45.8603, 7.09442e5, 6.25301e6)  …  StateXY(162.852, 7.08859e5, 6.25523e6)
#>  StateXY(53.0317, 7.09142e5, 6.25291e6)     StateXY(168.835, 7.08599e5, 6.25697e6)
#>  StateXY(51.6534, 7.09442e5, 6.25331e6)     StateXY(192.736, 7.0906e5, 6.25679e6)
#>  StateXY(45.8829, 7.09342e5, 6.25291e6)     StateXY(151.282, 7.08221e5, 6.25496e6)
#>  StateXY(59.7652, 7.09142e5, 6.25301e6)     StateXY(135.019, 7.0876e5, 6.25355e6)
fwd.diagnostics
#> 720×4 DataFrame
#>  Row │ timestep  timestamp            ess       maxlp
#>      │ Int64     DateTime             Float64   Float64
#> ─────┼────────────────────────────────────────────────────
#>    1 │        1  2016-03-17T01:50:00   871.187   -4.93421
#>    2 │        2  2016-03-17T01:52:00  1271.23    -4.91272
#>    3 │        3  2016-03-17T01:54:00   778.974   -9.82767
#>    4 │        4  2016-03-17T01:56:00   951.343   -4.55033
#>    5 │        5  2016-03-17T01:58:00   968.929   -4.91832
#>    6 │        6  2016-03-17T02:00:00  1318.74    -4.90221
#>    7 │        7  2016-03-17T02:02:00   823.489   -9.58653
#>    8 │        8  2016-03-17T02:04:00   933.039   -4.92097
#>   ⋮  │    ⋮               ⋮              ⋮          ⋮
#>  714 │      714  2016-03-18T01:36:00  1358.2    -37.2712
#>  715 │      715  2016-03-18T01:38:00  1242.68   -41.9696
#>  716 │      716  2016-03-18T01:40:00  1115.1    -46.6278
#>  717 │      717  2016-03-18T01:42:00  1008.86   -51.2927
#>  718 │      718  2016-03-18T01:44:00   930.228  -55.9539
#>  719 │      719  2016-03-18T01:46:00  1898.44    -4.658
#>  720 │      720  2016-03-18T01:48:00  1783.25    -9.31601
#>                                           705 rows omitted
…
#>  StateXY(-1.2144e6, -1.21428e6, -1.21416e6)            StateXY(178.48, 7.07342e5, 6.26711e6)
#>  StateXY(-1.21404e6, -1.21392e6, -1.2138e6)            StateXY(183.963, 7.07542e5, 6.26721e6)
#>  StateXY(-1.21368e6, -1.21356e6, -1.21344e6)           StateXY(144.53, 7.06742e5, 6.25011e6)
#>  ⋮                                                  ⋱  
#>  StateXY(-860160.0, -860040.0, -859920.0)              StateXY(162.061, 7.07942e5, 6.26531e6)
#>  StateXY(-859800.0, -859680.0, -859560.0)              StateXY(190.686, 7.08342e5, 6.26681e6)
#>  StateXY(-859440.0, -859320.0, -859200.0)              StateXY(186.824, 7.08642e5, 6.25571e6)
#>  StateXY(-859080.0, -858960.0, -858840.0)              StateXY(167.287, 7.08242e5, 6.26821e6)
#>  StateXY(-858720.0, -858600.0, -858480.0)           …  StateXY(188.622, 7.08842e5, 6.25691e6)
#>  StateXY(-858360.0, -858240.0, -858120.0)              StateXY(191.973, 7.06142e5, 6.24931e6)
#>  StateXY(-858000.0, -857880.0, -857760.0)              StateXY(181.723, 7.08342e5, 6.25641e6)
#>  StateXY(-857640.0, -857520.0, -857400.0)              StateXY(186.239, 7.08642e5, 6.26641e6)
#>  StateXY(-857280.0, -857160.0, -857040.0)              StateXY(148.615, 7.04442e5, 6.24911e6)
bwd.diagnostics
#> 720×4 DataFrame
#>  Row │ timestep  timestamp            ess       maxlp
#>      │ Int64     DateTime             Float64   Float64
#> ─────┼────────────────────────────────────────────────────
#>    1 │        1  2016-03-17T01:50:00   NaN      NaN
#>    2 │        2  2016-03-17T01:52:00   NaN      NaN
#>    3 │        3  2016-03-17T01:54:00   NaN      NaN
#>    4 │        4  2016-03-17T01:56:00   NaN      NaN
#>    5 │        5  2016-03-17T01:58:00   NaN      NaN
#>    6 │        6  2016-03-17T02:00:00   NaN      NaN
#>    7 │        7  2016-03-17T02:02:00   NaN      NaN
#>    8 │        8  2016-03-17T02:04:00   NaN      NaN
#>   ⋮  │    ⋮               ⋮              ⋮          ⋮
#>  714 │      714  2016-03-18T01:36:00  1025.64   -32.6163
#>  715 │      715  2016-03-18T01:38:00  1062.47   -27.9509
#>  716 │      716  2016-03-18T01:40:00  1144.41   -23.2914
#>  717 │      717  2016-03-18T01:42:00  1259.77   -18.6324
#>  718 │      718  2016-03-18T01:44:00  1435.05   -13.974
#>  719 │      719  2016-03-18T01:46:00  1625.19    -9.31601
#>  720 │      720  2016-03-18T01:48:00  1884.65    -4.658
#>                                           705 rows omitted
…
#>  StateXY(-1.2144e6, -1.21428e6, -1.21416e6)            StateXY(193.147, 7.08309e5, 6.25625e6)
#>  StateXY(-1.21404e6, -1.21392e6, -1.2138e6)            StateXY(191.794, 7.07576e5, 6.25459e6)
#>  StateXY(-1.21368e6, -1.21356e6, -1.21344e6)           StateXY(143.758, 7.0913e5, 6.25544e6)
#>  ⋮                                                  ⋱  
#>  StateXY(-950160.0, -950040.0, -949920.0)              StateXY(156.14, 7.07771e5, 6.2541e6)
#>  StateXY(-949800.0, -949680.0, -949560.0)              StateXY(188.297, 7.07872e5, 6.25514e6)
#>  StateXY(-949440.0, -949320.0, -949200.0)              StateXY(147.888, 7.07284e5, 6.25544e6)
#>  StateXY(-949080.0, -948960.0, -948840.0)              StateXY(145.139, 7.08266e5, 6.2545e6)
#>  StateXY(-948720.0, -948600.0, -948480.0)           …  StateXY(175.94, 7.07905e5, 6.25489e6)
#>  StateXY(-948360.0, -948240.0, -948120.0)              StateXY(197.11, 7.07837e5, 6.25553e6)
#>  StateXY(-948000.0, -947880.0, -947760.0)              StateXY(184.627, 7.08884e5, 6.25712e6)
#>  StateXY(-947640.0, -947520.0, -947400.0)              StateXY(188.208, 7.0792e5, 6.25527e6)
#>  StateXY(-947280.0, -947160.0, -947040.0)              StateXY(137.22, 7.08909e5, 6.25457e6)
smo.diagnostics
#> 720×4 DataFrame
#>  Row │ timestep  timestamp            ess      maxlp
#>      │ Int64     DateTime             Float64  Float64
#> ─────┼─────────────────────────────────────────────────
#>    1 │        1  2016-03-17T01:50:00  750.0        NaN
#>    2 │        2  2016-03-17T01:52:00  NaN          NaN
#>    3 │        3  2016-03-17T01:54:00  NaN          NaN
#>    4 │        4  2016-03-17T01:56:00  NaN          NaN
#>    5 │        5  2016-03-17T01:58:00  NaN          NaN
#>    6 │        6  2016-03-17T02:00:00  NaN          NaN
#>    7 │        7  2016-03-17T02:02:00  NaN          NaN
#>    8 │        8  2016-03-17T02:04:00  NaN          NaN
#>   ⋮  │    ⋮               ⋮              ⋮        ⋮
#>  714 │      714  2016-03-18T01:36:00  118.385      NaN
#>  715 │      715  2016-03-18T01:38:00  127.608      NaN
#>  716 │      716  2016-03-18T01:40:00  143.037      NaN
#>  717 │      717  2016-03-18T01:42:00  136.04       NaN
#>  718 │      718  2016-03-18T01:44:00  148.45       NaN
#>  719 │      719  2016-03-18T01:46:00  150.694      NaN
#>  720 │      720  2016-03-18T01:48:00  750.0        NaN
#>                                        705 rows omitted
…
